LingMethodsHub - Doing it all again, but tidy
…
as_tibble(td)

# A tibble: 1,189 × 17
   Dep.Var  Stress   Category Morph.Type Before After     Speaker   YOB Sex   Education    Job     After.New Center.Age Age.Group Age_Sex  Phoneme Dep.Var.Full
   <chr>    <chr>    <chr>    <chr>      <fct>  <chr>     <chr>   <int> <chr> <chr>        <chr>   <fct>          <dbl> <fct>     <fct>    <fct>   <fct>       
 1 Realized Stressed Lexical  Mono       Stop   Consonant BOUF65   1965 F     Educated     White   Consonant      -4.45 Middle    Middle_F t       T           
 2 Deletion Stressed Lexical  Mono       Stop   Consonant CHIF55   1955 F     Educated     White   Consonant     -14.4  Middle    Middle_F t       Deletion    
 3 Deletion Stressed Lexical  Mono       Stop   Consonant CHIF55   1955 F     Educated     White   Consonant     -14.4  Middle    Middle_F t       Deletion    
 4 Deletion Stressed Lexical  Mono       Stop   Consonant CLAF52   1952 F     Educated     Service Consonant     -17.4  Middle    Middle_F t       Deletion    
 5 Realized Stressed Lexical  Mono       Stop   Consonant DONM53   1953 M     Educated     Service Consonant     -16.4  Middle    Middle_M t       T           
 6 Deletion Stressed Lexical  Mono       Stop   Consonant DONM58   1958 M     Not Educated Service Consonant     -11.4  Middle    Middle_M t       Deletion    
 7 Deletion Stressed Lexical  Mono       Stop   Consonant DOUF46   1946 F     Educated     Service Consonant     -23.4  Middle    Middle_F t       Deletion    
 8 Deletion Stressed Lexical  Mono       Stop   Consonant GARM42   1942 M     Not Educated Blue    Consonant     -27.4  Old       Old_M    t       Deletion    
 9 Deletion Stressed Lexical  Mono       Stop   Consonant GREM45   1945 M     Not Educated Blue    Consonant     -24.4  Middle    Middle_M t       Deletion    
10 Deletion Stressed Lexical  Mono       Stop   Consonant HOLF49   1949 F     Educated     Service Consonant     -20.4  Middle    Middle_F t       Deletion    
# … with 1,179 more rows
# ℹ Use `print(n = ...)` to see more rows

Notice that the tibble lists the dimensions of the tibble at the top, as well as the class of each of the columns. It also only displays the first 10 rows. You’ll also notice that the row numbers have reset when we converted td to a tibble. If we want to view the entire tibble, we can use the print() function and specify the n= plus the number of rows we want to see, including all rows (n=Inf). You can see below how the pipe operator makes doing this pretty easy.

# Embedding functions
print(as_tibble(td), n = 20)

The above produces the same as the following:

# Using %>% to pass the results from the first function to the second function
as_tibble(td) %>%
    print(n = 20)

# A tibble: 1,189 × 17
   Dep.Var  Stress   Category Morph.Type Before After     Speaker   YOB Sex   Education    Job     After.New Center.Age Age.Group Age_Sex  Phoneme Dep.Var.Full
   <chr>    <chr>    <chr>    <chr>      <fct>  <chr>     <chr>   <int> <chr> <chr>        <chr>   <fct>          <dbl> <fct>     <fct>    <fct>   <fct>       
 1 Realized Stressed Lexical  Mono       Stop   Consonant BOUF65   1965 F     Educated     White   Consonant      -4.45 Middle    Middle_F t       T           
 2 Deletion Stressed Lexical  Mono       Stop   Consonant CHIF55   1955 F     Educated     White   Consonant     -14.4  Middle    Middle_F t       Deletion    
 3 Deletion Stressed Lexical  Mono       Stop   Consonant CHIF55   1955 F     Educated     White   Consonant     -14.4  Middle    Middle_F t       Deletion    
 4 Deletion Stressed Lexical  Mono       Stop   Consonant CLAF52   1952 F     Educated     Service Consonant     -17.4  Middle    Middle_F t       Deletion    
 5 Realized Stressed Lexical  Mono       Stop   Consonant DONM53   1953 M     Educated     Service Consonant     -16.4  Middle    Middle_M t       T           
 6 Deletion Stressed Lexical  Mono       Stop   Consonant DONM58   1958 M     Not Educated Service Consonant     -11.4  Middle    Middle_M t       Deletion    
 7 Deletion Stressed Lexical  Mono       Stop   Consonant DOUF46   1946 F     Educated     Service Consonant     -23.4  Middle    Middle_F t       Deletion    
 8 Deletion Stressed Lexical  Mono       Stop   Consonant GARM42   1942 M     Not Educated Blue    Consonant     -27.4  Old       Old_M    t       Deletion    
 9 Deletion Stressed Lexical  Mono       Stop   Consonant GREM45   1945 M     Not Educated Blue    Consonant     -24.4  Middle    Middle_M t       Deletion    
10 Deletion Stressed Lexical  Mono       Stop   Consonant HOLF49   1949 F     Educated     Service Consonant     -20.4  Middle    Middle_F t       Deletion    
11 Deletion Stressed Lexical  Mono       Stop   Consonant HOLM52   1952 M     Not Educated Blue    Consonant     -17.4  Middle    Middle_M t       Deletion    
12 Deletion Stressed Lexical  Mono       Stop   Consonant INGM84   1984 M     Educated     Service Consonant      14.6  Young     Young_M  t       Deletion    
13 Deletion Stressed Lexical  Mono       Stop   Consonant INGM87   1987 M     Educated     Service Consonant      17.6  Young     Young_M  t       Deletion    
14 Deletion Stressed Lexical  Mono       Stop   Consonant KAYF29   1929 F     Not Educated Service Consonant     -40.4  Old       Old_F    t       Deletion    
15 Deletion Stressed Lexical  Mono       Stop   Consonant KAYM29   1929 M     Not Educated Blue    Consonant     -40.4  Old       Old_M    t       Deletion    
16 Realized Stressed Lexical  Mono       Stop   Consonant LATF53   1953 F     Educated     Service Consonant     -16.4  Middle    Middle_F t       T           
17 Realized Stressed Lexical  Mono       Stop   Consonant LEOF66   1966 F     Educated     White   Consonant      -3.45 Middle    Middle_F t       T           
18 Deletion Stressed Lexical  Mono       Stop   Consonant MOFM55   1955 M     Educated     White   Consonant     -14.4  Middle    Middle_M t       Deletion    
19 Deletion Stressed Lexical  Mono       Stop   Consonant NATF84   1984 F     Educated     Service Consonant      14.6  Young     Young_F  t       Deletion    
20 Deletion Stressed Lexical  Mono       Stop   Consonant NEIF49   1949 F     Educated     Service Consonant     -20.4  Middle    Middle_F t       Deletion    
# … with 1,169 more rows
# ℹ Use `print(n = ...)` to see more rows
…
