LingMethodsHub - Vowel Plots with ggplot2
…
library(tidyverse)

# remotes::install_github("joeystanley/joeysvowels")
library(joeysvowels)

Of course you’re welcome to use your own data.

Read in and process data

As with any R script, the first step (after loading your packages) is to read in and prepare your data. The data we’ll use for this tutorial is called midpoints. Basically, I generated a bunch of words (real and fake) where there was a coronal consonant on either side of vowel. I did that for all the vowels I have in my variety of English, though only 10 are contained in this dataset: all except canonical diphthongs and /ʌ/. I sat at my desk and read all these words and then extracted formant measurements from the vowels. Let’s load it and take a peek at what the data looks like.

midpoints <- joeysvowels::midpoints
midpoints

# A tibble: 566 × 12
   vowel_id start   end     t    F1    F2    F3    F4 word  pre   vowel   fol  
      <dbl> <dbl> <dbl> <dbl> <dbl> <dbl> <dbl> <dbl> <chr> <chr> <fct>   <chr>
 1        1  2.06  2.41  2.23  368. 1018. 2602. 3168. snoʊz sn    GOAT    z    
 2        2  3     3.36  3.18  377. 2032. 2761. 3408. deɪz  d     FACE    z    
 3        4  4.94  5.19  5.07  314. 2179. 2915. 3380. teɪd  t     FACE    d    
 4        5  5.91  6.17  6.04  274. 1378. 2235. 3270. zudz  z     GOOSE   dz   
 5        7  8.13  8.4   8.26  350. 1624. 2485. 3384. stʊz  st    FOOT    z    
 6        8  9.16  9.41  9.28  313. 2181. 2863. 3205. heɪdz h     FACE    dz   
 7        9 10.5  10.8  10.6   255. 1333. 2313. 3212. zuz   z     GOOSE   z    
 8       10 11.6  11.9  11.8   585   969. 2813. 3405  zɔd   z     THOUGHT d    
 9       11 12.6  13.1  12.8   527. 1201. 2733. 3434. sɔz   s     THOUGHT z    
10       14 16.8  17.1  17.0   367. 1594. 2477  3367  sʊz   s     FOOT    z    
# … with 556 more rows
# ℹ Use `print(n = ...)` to see more rows
…
