LingMethodsHub - Crosstabs: Counts, Proportions, and More
…
Another tidy way to find out the number of tokens by the different levels of a factor group is using the group_by() and tally() functions. First, we specify how to group the data, i.e., what combination of factors we want to investigate. In this case, we want the number of tokens for every combination of Age.Group, Education, Sex and Dep.Var. Next we use the tally() function to provide the token counts for each of those combinations. The results are very similar to those produced by ftable(table()).

# Group data by Age, Education, and Sex then tally each group
td %>%
    group_by(Age.Group, Education, Sex, Dep.Var) %>%
    tally()

# A tibble: 24 × 5
# Groups:   Age.Group, Education, Sex [12]
   Age.Group Education    Sex   Dep.Var      n
   <fct>     <fct>        <fct> <fct>    <int>
 1 Old       Educated     F     Deletion     2
 2 Old       Educated     F     Realized    30
 3 Old       Not Educated F     Deletion    41
 4 Old       Not Educated F     Realized    77
 5 Old       Not Educated M     Deletion    24
 6 Old       Not Educated M     Realized    27
 7 Middle    Educated     F     Deletion    68
 8 Middle    Educated     F     Realized   153
 9 Middle    Educated     M     Deletion    16
10 Middle    Educated     M     Realized    30
# … with 14 more rows
# ℹ Use `print(n = ...)` to see more rows
…
